Code Station***1529667975
Code Station***1529667976
Code Station***1529667977
Code Station***1529667978
Code Station***1529667979
Code Station***1529667980
Code Station***1529667981
Code Station***1529667982
Code Station***1529667983
Code Station***1529667984
Code Station***1529667985
Code Station***1529667986
Code Station***1529667987
Code Station***1529667988
Code Station***1529667989
Code Station***1529667990
Code Station***1529667991
Code Station***1529667992
Code Station***1529667993
Code Station***1529667994
Code Station***1529667995
Code Station***1529667996
Code Station***1529667997
Code Station***1529667998
Code Station***1529667999
Code Station***1529668000
Code Station***1529668001
Code Station***1529668002
Code Station***1529668003
Code Station***1529668004
Code Station***1529668005
Code Station***1529668006
Code Station***1529668007
Code Station***1529668008
Code Station***1529668009
Code Station***1529668010
Code Station***1529668011
Code Station***1529668012
Code Station***1529668013
Code Station***1529668014
Code Station***1529668015
Code Station***1529668016
Code Station***1529668017
Code Station***1529668018
Code Station***1529668019
Code Station***1529668020
Code Station***1529668021
Code Station***1529668022
Code Station***1529668023
Code Station***1529668024
Code Station***1529668025
Code Station***1529668026
Code Station***1529668027
Code Station***1529668028
Code Station***1529668029
Code Station***1529668030
Code Station***1529668031
Code Station***1529668032
Code Station***1529668033
Code Station***1529668034
